PrimitiveCalculator.vcd
$date
	Sat May 14 21:21:38 2022
$end
$version
	Icarus Verilog
$end
$timescale
	1ns
$end
$scope module PrimitiveCalculator $end
$var wire 1 ! clk $end
$var wire 1 " clk_div $end
$var wire 1 # restart $end
$var wire 1 $ rotary_a $end
$var wire 1 % rotary_b $end
$var wire 1 & rst $end
$var wire 1 ' select $end
$var wire 1 ( select_pressed $end
$var wire 7 ) seven_segment_out [6:0] $end
$var wire 1 * seven_segment_digit $end
$var wire 1 + select_debounce $end
$var wire 8 , rotary_out [7:0] $end
$var wire 1 - rotary_b_debounce $end
$var wire 1 . rotary_a_debounce $end
$var wire 1 / restart_debounce $end
$var wire 8 0 alu_out [7:0] $end
$var wire 1 1 alu_flag $end
$var reg 8 2 alu_in_a_r [7:0] $end
$var reg 8 3 alu_in_b_r [7:0] $end
$var reg 1 4 alu_load $end
$var reg 3 5 alu_select [2:0] $end
$var reg 3 6 current_state [2:0] $end
$var reg 1 7 led_flag $end
$var reg 3 8 next_state [2:0] $end
$var reg 1 9 select_d1 $end
$var reg 1 : seven_segment_load $end
$var reg 4 ; seven_segment_tens [3:0] $end
$var reg 4 < seven_segment_units [3:0] $end
$scope module alu $end
$var wire 1 " clk $end
$var wire 8 = in_a [7:0] $end
$var wire 8 > in_b [7:0] $end
$var wire 1 4 load $end
$var wire 1 & rst $end
$var wire 3 ? select [2:0] $end
$var reg 1 1 flag $end
$var reg 8 @ out [7:0] $end
$upscope $end
$scope module debouncer_rotary_a $end
$var wire 1 " clk $end
$var wire 1 $ in_a $end
$var wire 1 . out $end
$var wire 1 & rst $end
$var reg 1 A r_out $end
$var reg 8 B shift_reg [7:0] $end
$upscope $end
$scope module debouncer_rotary_b $end
$var wire 1 " clk $end
$var wire 1 % in_a $end
$var wire 1 - out $end
$var wire 1 & rst $end
$var reg 1 C r_out $end
$var reg 8 D shift_reg [7:0] $end
$upscope $end
$scope module debouncer_rotary_restart $end
$var wire 1 " clk $end
$var wire 1 # in_a $end
$var wire 1 / out $end
$var wire 1 & rst $end
$var reg 1 E r_out $end
$var reg 8 F shift_reg [7:0] $end
$upscope $end
$scope module debouncer_rotary_select $end
$var wire 1 " clk $end
$var wire 1 ' in_a $end
$var wire 1 & rst $end
$var wire 1 + out $end
$var reg 1 + r_out $end
$var reg 8 G shift_reg [7:0] $end
$upscope $end
$scope module rotary_encoder $end
$var wire 1 . a $end
$var wire 1 - b $end
$var wire 1 " clk $end
$var wire 1 & rst $end
$var reg 1 H a_d1 $end
$var reg 1 I b_d1 $end
$var reg 8 J out [7:0] $end
$upscope $end
$scope module seven_segment $end
$var wire 1 " clk $end
$var wire 1 : load $end
$var wire 1 & rst $end
$var wire 4 K tens [3:0] $end
$var wire 4 L units [3:0] $end
$var wire 4 M decode [3:0] $end
$var reg 1 * digit $end
$var reg 7 N display_out [6:0] $end
$var reg 4 O tens_r [3:0] $end
$var reg 4 P units_r [3:0] $end
$upscope $end
$upscope $end
$enddefinitions $end
#0
$dumpvars
b0 P
b0 O
b111111 N
b0 M
bx L
bx K
b0 J
0I
0H
b0 G
b0 F
0E
b0 D
0C
b0 B
0A
b0 @
bx ?
bx >
bx =
bx <
bx ;
x:
x9
b0 8
x7
b0 6
bx 5
x4
bx 3
bx 2
01
b0 0
0/
0.
0-
b0 ,
0+
0*
b111111 )
0(
0'
1&
0%
0$
0#
1"
1!
$end
#2500
0"
0!
#5000
09
b0 5
b0 ?
07
b0 3
b0 >
b0 2
b0 =
04
b0 <
b0 L
b0 ;
b0 K
0:
1"
1!
#7500
0"
0!
#10000
1"
1!
#12500
0"
0!
#15000
1"
1!
#17500
0"
0!
#20000
0&
1"
1!
#22500
0"
0!
#25000
1*
1"
1!
#27500
0"
0!
#30000
0*
1"
1!
#32500
0"
0!
#35000
1*
1"
1!
#37500
0"
0!
#40000
0*
1"
1!
#42500
0"
0!
#45000
1'
1*
1"
1!
#47500
0"
0!
#50000
b1 G
0*
1"
1!
#52500
0"
0!
#55000
1*
b11 G
1"
1!
#57500
0"
0!
#60000
b111 G
0*
1"
1!
#62500
0"
0!
#65000
1*
b1111 G
1"
1!
#67500
0"
0!
#70000
b11111 G
0*
1"
1!
#72500
0"
0!
#75000
1*
b111111 G
1"
1!
#77500
0"
0!
#80000
b1111111 G
0*
1"
1!
#82500
0"
0!
#85000
1*
b11111111 G
1"
1!
#87500
0"
0!
#90000
b1 8
1(
1+
0*
1"
1!
#92500
0"
0!
#95000
0'
0(
b1 8
b1 6
19
1*
1"
1!
#97500
0"
0!
#100000
b11111110 G
0*
1:
1"
1!
#102500
0"
0!
#105000
1*
b11111100 G
1"
1!
#107500
0"
0!
#110000
b11111000 G
0*
1"
1!
#112500
0"
0!
#115000
1*
b11110000 G
1"
1!
#117500
0"
0!
#120000
b11100000 G
0*
1"
1!
#122500
0"
0!
#125000
1*
b11000000 G
1"
1!
#127500
0"
0!
#130000
b10000000 G
0*
1"
1!
#132500
0"
0!
#135000
1$
1*
b0 G
1"
1!
#137500
0"
0!
#140000
b1 B
0+
0*
1"
1!
#142500
0"
0!
#145000
09
1*
b11 B
1"
1!
#147500
0"
0!
#150000
b111 B
0*
1"
1!
#152500
0"
0!
#155000
1*
b1111 B
1"
1!
#157500
0"
0!
#160000
1%
b11111 B
0*
1"
1!
#162500
0"
0!
#165000
1*
b1 D
b111111 B
1"
1!
#167500
0"
0!
#170000
b1111111 B
b11 D
0*
1"
1!
#172500
0"
0!
#175000
1*
b111 D
b11111111 B
1"
1!
#177500
0"
0!
#180000
1.
1A
b1111 D
0*
1"
1!
#182500
0"
0!
#185000
0$
1*
b1 ,
b1 J
1H
b11111 D
1"
1!
#187500
0"
0!
#190000
b11111110 B
b111111 D
0*
b1 2
b1 =
b1 <
b1 L
1"
1!
#192500
0"
0!
#195000
1*
b1 P
b1111111 D
b11111100 B
1"
1!
#197500
0"
0!
#200000
b110 )
b110 N
b1 M
b11111000 B
b11111111 D
0*
1"
1!
#202500
0"
0!
#205000
b111111 )
b111111 N
b0 M
1*
1-
1C
b11110000 B
1"
1!
#207500
0"
0!
#210000
0%
b110 )
b110 N
b1 M
b11100000 B
1I
0*
1"
1!
#212500
0"
0!
#215000
b111111 )
b111111 N
b0 M
1*
b11111110 D
b11000000 B
1"
1!
#217500
0"
0!
#220000
b110 )
b110 N
b1 M
b10000000 B
b11111100 D
0*
1"
1!
#222500
0"
0!
#225000
b111111 )
b111111 N
b0 M
1*
b11111000 D
b0 B
1"
1!
#227500
0"
0!
#230000
b110 )
b110 N
b1 M
0.
0A
b11110000 D
0*
1"
1!
#232500
0"
0!
#235000
1$
b111111 )
b111111 N
b0 M
1*
b10 ,
b10 J
0H
b11100000 D
1"
1!
#237500
0"
0!
#240000
b110 )
b110 N
b1 M
b1 B
b11000000 D
0*
b10 2
b10 =
b10 <
b10 L
1"
1!
#242500
0"
0!
#245000
b111111 )
b111111 N
b0 M
1*
b10 P
b10000000 D
b11 B
1"
1!
#247500
0"
0!
#250000
b1011011 )
b1011011 N
b10 M
b111 B
b0 D
0*
1"
1!
#252500
0"
0!
#255000
b111111 )
b111111 N
b0 M
1*
0-
0C
b1111 B
1"
1!
#257500
0"
0!
#260000
1%
b1011011 )
b1011011 N
b10 M
b11111 B
0I
0*
1"
1!
#262500
0"
0!
#265000
b111111 )
b111111 N
b0 M
1*
b1 D
b111111 B
1"
1!
#267500
0"
0!
#270000
b1011011 )
b1011011 N
b10 M
b1111111 B
b11 D
0*
1"
1!
#272500
0"
0!
#275000
b111111 )
b111111 N
b0 M
1*
b111 D
b11111111 B
1"
1!
#277500
0"
0!
#280000
b1011011 )
b1011011 N
b10 M
1.
1A
b1111 D
0*
1"
1!
#282500
0"
0!
#285000
0$
b111111 )
b111111 N
b0 M
1*
b11 ,
b11 J
1H
b11111 D
1"
1!
#287500
0"
0!
#290000
b1011011 )
b1011011 N
b10 M
b11111110 B
b111111 D
0*
b11 2
b11 =
b11 <
b11 L
1"
1!
#292500
0"
0!
#295000
b111111 )
b111111 N
b0 M
1*
b11 P
b1111111 D
b11111100 B
1"
1!
#297500
0"
0!
#300000
b1001111 )
b1001111 N
b11 M
b11111000 B
b11111111 D
0*
1"
1!
#302500
0"
0!
#305000
b111111 )
b111111 N
b0 M
1*
1-
1C
b11110000 B
1"
1!
#307500
0"
0!
#310000
0%
b1001111 )
b1001111 N
b11 M
b11100000 B
1I
0*
1"
1!
#312500
0"
0!
#315000
b111111 )
b111111 N
b0 M
1*
b11111110 D
b11000000 B
1"
1!
#317500
0"
0!
#320000
b1001111 )
b1001111 N
b11 M
b10000000 B
b11111100 D
0*
1"
1!
#322500
0"
0!
#325000
b111111 )
b111111 N
b0 M
1*
b11111000 D
b0 B
1"
1!
#327500
0"
0!
#330000
b1001111 )
b1001111 N
b11 M
0.
0A
b11110000 D
0*
1"
1!
#332500
0"
0!
#335000
1$
b111111 )
b111111 N
b0 M
1*
b100 ,
b100 J
0H
b11100000 D
1"
1!
#337500
0"
0!
#340000
b1001111 )
b1001111 N
b11 M
b1 B
b11000000 D
0*
b100 2
b100 =
b100 <
b100 L
1"
1!
#342500
0"
0!
#345000
b111111 )
b111111 N
b0 M
1*
b100 P
b10000000 D
b11 B
1"
1!
#347500
0"
0!
#350000
b1100110 )
b1100110 N
b100 M
b111 B
b0 D
0*
1"
1!
#352500
0"
0!
#355000
b111111 )
b111111 N
b0 M
1*
0-
0C
b1111 B
1"
1!
#357500
0"
0!
#360000
1%
b1100110 )
b1100110 N
b100 M
b11111 B
0I
0*
1"
1!
#362500
0"
0!
#365000
b111111 )
b111111 N
b0 M
1*
b1 D
b111111 B
1"
1!
#367500
0"
0!
#370000
b1100110 )
b1100110 N
b100 M
b1111111 B
b11 D
0*
1"
1!
#372500
0"
0!
#375000
b111111 )
b111111 N
b0 M
1*
b111 D
b11111111 B
1"
1!
#377500
0"
0!
#380000
b1100110 )
b1100110 N
b100 M
1.
1A
b1111 D
0*
1"
1!
#382500
0"
0!
#385000
0$
b111111 )
b111111 N
b0 M
1*
b101 ,
b101 J
1H
b11111 D
1"
1!
#387500
0"
0!
#390000
b1100110 )
b1100110 N
b100 M
b11111110 B
b111111 D
0*
b101 2
b101 =
b101 <
b101 L
1"
1!
#392500
0"
0!
#395000
b111111 )
b111111 N
b0 M
1*
b101 P
b1111111 D
b11111100 B
1"
1!
#397500
0"
0!
#400000
b1101101 )
b1101101 N
b101 M
b11111000 B
b11111111 D
0*
1"
1!
#402500
0"
0!
#405000
b111111 )
b111111 N
b0 M
1*
1-
1C
b11110000 B
1"
1!
#407500
0"
0!
#410000
0%
b1101101 )
b1101101 N
b101 M
b11100000 B
1I
0*
1"
1!
#412500
0"
0!
#415000
b111111 )
b111111 N
b0 M
1*
b11111110 D
b11000000 B
1"
1!
#417500
0"
0!
#420000
b1101101 )
b1101101 N
b101 M
b10000000 B
b11111100 D
0*
1"
1!
#422500
0"
0!
#425000
b111111 )
b111111 N
b0 M
1*
b11111000 D
b0 B
1"
1!
#427500
0"
0!
#430000
b1101101 )
b1101101 N
b101 M
0.
0A
b11110000 D
0*
1"
1!
#432500
0"
0!
#435000
1$
b111111 )
b111111 N
b0 M
1*
b110 ,
b110 J
0H
b11100000 D
1"
1!
#437500
0"
0!
#440000
b1101101 )
b1101101 N
b101 M
b1 B
b11000000 D
0*
b110 2
b110 =
b110 <
b110 L
1"
1!
#442500
0"
0!
#445000
b111111 )
b111111 N
b0 M
1*
b110 P
b10000000 D
b11 B
1"
1!
#447500
0"
0!
#450000
b1111101 )
b1111101 N
b110 M
b111 B
b0 D
0*
1"
1!
#452500
0"
0!
#455000
b111111 )
b111111 N
b0 M
1*
0-
0C
b1111 B
1"
1!
#457500
0"
0!
#460000
1%
b1111101 )
b1111101 N
b110 M
b11111 B
0I
0*
1"
1!
#462500
0"
0!
#465000
b111111 )
b111111 N
b0 M
1*
b1 D
b111111 B
1"
1!
#467500
0"
0!
#470000
b1111101 )
b1111101 N
b110 M
b1111111 B
b11 D
0*
1"
1!
#472500
0"
0!
#475000
b111111 )
b111111 N
b0 M
1*
b111 D
b11111111 B
1"
1!
#477500
0"
0!
#480000
b1111101 )
b1111101 N
b110 M
1.
1A
b1111 D
0*
1"
1!
#482500
0"
0!
#485000
0$
b111111 )
b111111 N
b0 M
1*
b111 ,
b111 J
1H
b11111 D
1"
1!
#487500
0"
0!
#490000
b1111101 )
b1111101 N
b110 M
b11111110 B
b111111 D
0*
b111 2
b111 =
b111 <
b111 L
1"
1!
#492500
0"
0!
#495000
b111111 )
b111111 N
b0 M
1*
b111 P
b1111111 D
b11111100 B
1"
1!
#497500
0"
0!
#500000
b111 )
b111 N
b111 M
b11111000 B
b11111111 D
0*
1"
1!
#502500
0"
0!
#505000
b111111 )
b111111 N
b0 M
1*
1-
1C
b11110000 B
1"
1!
#507500
0"
0!
#510000
0%
b111 )
b111 N
b111 M
b11100000 B
1I
0*
1"
1!
#512500
0"
0!
#515000
b111111 )
b111111 N
b0 M
1*
b11111110 D
b11000000 B
1"
1!
#517500
0"
0!
#520000
b111 )
b111 N
b111 M
b10000000 B
b11111100 D
0*
1"
1!
#522500
0"
0!
#525000
b111111 )
b111111 N
b0 M
1*
b11111000 D
b0 B
1"
1!
#527500
0"
0!
#530000
b111 )
b111 N
b111 M
0.
0A
b11110000 D
0*
1"
1!
#532500
0"
0!
#535000
1$
b111111 )
b111111 N
b0 M
1*
b1000 ,
b1000 J
0H
b11100000 D
1"
1!
#537500
0"
0!
#540000
b111 )
b111 N
b111 M
b1 B
b11000000 D
0*
b1000 2
b1000 =
b1000 <
b1000 L
1"
1!
#542500
0"
0!
#545000
b111111 )
b111111 N
b0 M
1*
b1000 P
b10000000 D
b11 B
1"
1!
#547500
0"
0!
#550000
b1111111 )
b1111111 N
b1000 M
b111 B
b0 D
0*
1"
1!
#552500
0"
0!
#555000
b111111 )
b111111 N
b0 M
1*
0-
0C
b1111 B
1"
1!
#557500
0"
0!
#560000
1%
b1111111 )
b1111111 N
b1000 M
b11111 B
0I
0*
1"
1!
#562500
0"
0!
#565000
b111111 )
b111111 N
b0 M
1*
b1 D
b111111 B
1"
1!
#567500
0"
0!
#570000
b1111111 )
b1111111 N
b1000 M
b1111111 B
b11 D
0*
1"
1!
#572500
0"
0!
#575000
b111111 )
b111111 N
b0 M
1*
b111 D
b11111111 B
1"
1!
#577500
0"
0!
#580000
b1111111 )
b1111111 N
b1000 M
1.
1A
b1111 D
0*
1"
1!
#582500
0"
0!
#585000
0$
b111111 )
b111111 N
b0 M
1*
b1001 ,
b1001 J
1H
b11111 D
1"
1!
#587500
0"
0!
#590000
b1111111 )
b1111111 N
b1000 M
b11111110 B
b111111 D
0*
b1001 2
b1001 =
b1001 <
b1001 L
1"
1!
#592500
0"
0!
#595000
b111111 )
b111111 N
b0 M
1*
b1001 P
b1111111 D
b11111100 B
1"
1!
#597500
0"
0!
#600000
b1101111 )
b1101111 N
b1001 M
b11111000 B
b11111111 D
0*
1"
1!
#602500
0"
0!
#605000
b111111 )
b111111 N
b0 M
1*
1-
1C
b11110000 B
1"
1!
#607500
0"
0!
#610000
0%
b1101111 )
b1101111 N
b1001 M
b11100000 B
1I
0*
1"
1!
#612500
0"
0!
#615000
b111111 )
b111111 N
b0 M
1*
b11111110 D
b11000000 B
1"
1!
#617500
0"
0!
#620000
b1101111 )
b1101111 N
b1001 M
b10000000 B
b11111100 D
0*
1"
1!
#622500
0"
0!
#625000
b111111 )
b111111 N
b0 M
1*
b11111000 D
b0 B
1"
1!
#627500
0"
0!
#630000
b1101111 )
b1101111 N
b1001 M
0.
0A
b11110000 D
0*
1"
1!
#632500
0"
0!
#635000
1$
b111111 )
b111111 N
b0 M
1*
b1010 ,
b1010 J
0H
b11100000 D
1"
1!
#637500
0"
0!
#640000
b1101111 )
b1101111 N
b1001 M
b1 B
b11000000 D
0*
b1010 2
b1010 =
b1010 <
b1010 L
1"
1!
#642500
0"
0!
#645000
b111111 )
b111111 N
b0 M
1*
b1010 P
b10000000 D
b11 B
1"
1!
#647500
0"
0!
#650000
b1011111 )
b1011111 N
b1010 M
b111 B
b0 D
0*
1"
1!
#652500
0"
0!
#655000
b111111 )
b111111 N
b0 M
1*
0-
0C
b1111 B
1"
1!
#657500
0"
0!
#660000
1%
b1011111 )
b1011111 N
b1010 M
b11111 B
0I
0*
1"
1!
#662500
0"
0!
#665000
b111111 )
b111111 N
b0 M
1*
b1 D
b111111 B
1"
1!
#667500
0"
0!
#670000
b1011111 )
b1011111 N
b1010 M
b1111111 B
b11 D
0*
1"
1!
#672500
0"
0!
#675000
b111111 )
b111111 N
b0 M
1*
b111 D
b11111111 B
1"
1!
#677500
0"
0!
#680000
b1011111 )
b1011111 N
b1010 M
1.
1A
b1111 D
0*
1"
1!
#682500
0"
0!
#685000
0$
b111111 )
b111111 N
b0 M
1*
b1011 ,
b1011 J
1H
b11111 D
1"
1!
#687500
0"
0!
#690000
b1011111 )
b1011111 N
b1010 M
b11111110 B
b111111 D
0*
b1011 2
b1011 =
b1011 <
b1011 L
1"
1!
#692500
0"
0!
#695000
b111111 )
b111111 N
b0 M
1*
b1011 P
b1111111 D
b11111100 B
1"
1!
#697500
0"
0!
#700000
b1111100 )
b1111100 N
b1011 M
b11111000 B
b11111111 D
0*
1"
1!
#702500
0"
0!
#705000
b111111 )
b111111 N
b0 M
1*
1-
1C
b11110000 B
1"
1!
#707500
0"
0!
#710000
0%
b1111100 )
b1111100 N
b1011 M
b11100000 B
1I
0*
1"
1!
#712500
0"
0!
#715000
b111111 )
b111111 N
b0 M
1*
b11111110 D
b11000000 B
1"
1!
#717500
0"
0!
#720000
b1111100 )
b1111100 N
b1011 M
b10000000 B
b11111100 D
0*
1"
1!
#722500
0"
0!
#725000
b111111 )
b111111 N
b0 M
1*
b11111000 D
b0 B
1"
1!
#727500
0"
0!
#730000
b1111100 )
b1111100 N
b1011 M
0.
0A
b11110000 D
0*
1"
1!
#732500
0"
0!
#735000
1$
b111111 )
b111111 N
b0 M
1*
b1100 ,
b1100 J
0H
b11100000 D
1"
1!
#737500
0"
0!
#740000
b1111100 )
b1111100 N
b1011 M
b1 B
b11000000 D
0*
b1100 2
b1100 =
b1100 <
b1100 L
1"
1!
#742500
0"
0!
#745000
b111111 )
b111111 N
b0 M
1*
b1100 P
b10000000 D
b11 B
1"
1!
#747500
0"
0!
#750000
b1011000 )
b1011000 N
b1100 M
b111 B
b0 D
0*
1"
1!
#752500
0"
0!
#755000
b111111 )
b111111 N
b0 M
1*
0-
0C
b1111 B
1"
1!
#757500
0"
0!
#760000
1%
b1011000 )
b1011000 N
b1100 M
b11111 B
0I
0*
1"
1!
#762500
0"
0!
#765000
b111111 )
b111111 N
b0 M
1*
b1 D
b111111 B
1"
1!
#767500
0"
0!
#770000
b1011000 )
b1011000 N
b1100 M
b1111111 B
b11 D
0*
1"
1!
#772500
0"
0!
#775000
b111111 )
b111111 N
b0 M
1*
b111 D
b11111111 B
1"
1!
#777500
0"
0!
#780000
b1011000 )
b1011000 N
b1100 M
1.
1A
b1111 D
0*
1"
1!
#782500
0"
0!
#785000
0$
b111111 )
b111111 N
b0 M
1*
b1101 ,
b1101 J
1H
b11111 D
1"
1!
#787500
0"
0!
#790000
b1011000 )
b1011000 N
b1100 M
b11111110 B
b111111 D
0*
b1101 2
b1101 =
b1101 <
b1101 L
1"
1!
#792500
0"
0!
#795000
b111111 )
b111111 N
b0 M
1*
b1101 P
b1111111 D
b11111100 B
1"
1!
#797500
0"
0!
#800000
b1011110 )
b1011110 N
b1101 M
b11111000 B
b11111111 D
0*
1"
1!
#802500
0"
0!
#805000
b111111 )
b111111 N
b0 M
1*
1-
1C
b11110000 B
1"
1!
#807500
0"
0!
#810000
0%
b1011110 )
b1011110 N
b1101 M
b11100000 B
1I
0*
1"
1!
#812500
0"
0!
#815000
b111111 )
b111111 N
b0 M
1*
b11111110 D
b11000000 B
1"
1!
#817500
0"
0!
#820000
b1011110 )
b1011110 N
b1101 M
b10000000 B
b11111100 D
0*
1"
1!
#822500
0"
0!
#825000
b111111 )
b111111 N
b0 M
1*
b11111000 D
b0 B
1"
1!
#827500
0"
0!
#830000
b1011110 )
b1011110 N
b1101 M
0.
0A
b11110000 D
0*
1"
1!
#832500
0"
0!
#835000
1$
b111111 )
b111111 N
b0 M
1*
b1110 ,
b1110 J
0H
b11100000 D
1"
1!
#837500
0"
0!
#840000
b1011110 )
b1011110 N
b1101 M
b1 B
b11000000 D
0*
b1110 2
b1110 =
b1110 <
b1110 L
1"
1!
#842500
0"
0!
#845000
b111111 )
b111111 N
b0 M
1*
b1110 P
b10000000 D
b11 B
1"
1!
#847500
0"
0!
#850000
b1111011 )
b1111011 N
b1110 M
b111 B
b0 D
0*
1"
1!
#852500
0"
0!
#855000
b111111 )
b111111 N
b0 M
1*
0-
0C
b1111 B
1"
1!
#857500
0"
0!
#860000
1%
b1111011 )
b1111011 N
b1110 M
b11111 B
0I
0*
1"
1!
#862500
0"
0!
#865000
b111111 )
b111111 N
b0 M
1*
b1 D
b111111 B
1"
1!
#867500
0"
0!
#870000
b1111011 )
b1111011 N
b1110 M
b1111111 B
b11 D
0*
1"
1!
#872500
0"
0!
#875000
b111111 )
b111111 N
b0 M
1*
b111 D
b11111111 B
1"
1!
#877500
0"
0!
#880000
b1111011 )
b1111011 N
b1110 M
1.
1A
b1111 D
0*
1"
1!
#882500
0"
0!
#885000
0$
b111111 )
b111111 N
b0 M
1*
b1111 ,
b1111 J
1H
b11111 D
1"
1!
#887500
0"
0!
#890000
b1111011 )
b1111011 N
b1110 M
b11111110 B
b111111 D
0*
b1111 2
b1111 =
b1111 <
b1111 L
1"
1!
#892500
0"
0!
#895000
b111111 )
b111111 N
b0 M
1*
b1111 P
b1111111 D
b11111100 B
1"
1!
#897500
0"
0!
#900000
b1110001 )
b1110001 N
b1111 M
b11111000 B
b11111111 D
0*
1"
1!
#902500
0"
0!
#905000
b111111 )
b111111 N
b0 M
1*
1-
1C
b11110000 B
1"
1!
#907500
0"
0!
#910000
0%
b1110001 )
b1110001 N
b1111 M
b11100000 B
1I
0*
1"
1!
#912500
0"
0!
#915000
b111111 )
b111111 N
b0 M
1*
b11111110 D
b11000000 B
1"
1!
#917500
0"
0!
#920000
b1110001 )
b1110001 N
b1111 M
b10000000 B
b11111100 D
0*
1"
1!
#922500
0"
0!
#925000
b111111 )
b111111 N
b0 M
1*
b11111000 D
b0 B
1"
1!
#927500
0"
0!
#930000
b1110001 )
b1110001 N
b1111 M
0.
0A
b11110000 D
0*
1"
1!
#932500
0"
0!
#935000
1$
b111111 )
b111111 N
b0 M
1*
b10000 ,
b10000 J
0H
b11100000 D
1"
1!
#937500
0"
0!
#940000
b1110001 )
b1110001 N
b1111 M
b1 B
b11000000 D
0*
b10000 2
b10000 =
b1 ;
b1 K
b0 <
b0 L
1"
1!
#942500
0"
0!
#945000
b110 )
b110 N
b1 M
1*
b0 P
b1 O
b10000000 D
b11 B
1"
1!
#947500
0"
0!
#950000
b111111 )
b111111 N
b0 M
b111 B
b0 D
0*
1"
1!
#952500
0"
0!
#955000
b110 )
b110 N
b1 M
1*
0-
0C
b1111 B
1"
1!
#957500
0"
0!
#960000
1%
b111111 )
b111111 N
b0 M
b11111 B
0I
0*
1"
1!
#962500
0"
0!
#965000
b110 )
b110 N
b1 M
1*
b1 D
b111111 B
1"
1!
#967500
0"
0!
#970000
b111111 )
b111111 N
b0 M
b1111111 B
b11 D
0*
1"
1!
#972500
0"
0!
#975000
b110 )
b110 N
b1 M
1*
b111 D
b11111111 B
1"
1!
#977500
0"
0!
#980000
b111111 )
b111111 N
b0 M
1.
1A
b1111 D
0*
1"
1!
#982500
0"
0!
#985000
0$
b110 )
b110 N
b1 M
1*
b10001 ,
b10001 J
1H
b11111 D
1"
1!
#987500
0"
0!
#990000
b111111 )
b111111 N
b0 M
b11111110 B
b111111 D
0*
b10001 2
b10001 =
b1 <
b1 L
1"
1!
#992500
0"
0!
#995000
b110 )
b110 N
b1 M
1*
b1 P
b1111111 D
b11111100 B
1"
1!
#997500
0"
0!
#1000000
b11111000 B
b11111111 D
0*
1"
1!
#1002500
0"
0!
#1005000
1*
1-
1C
b11110000 B
1"
1!
#1007500
0"
0!
#1010000
0%
b11100000 B
1I
0*
1"
1!
#1012500
0"
0!
#1015000
1*
b11111110 D
b11000000 B
1"
1!
#1017500
0"
0!
#1020000
b10000000 B
b11111100 D
0*
1"
1!
#1022500
0"
0!
#1025000
1*
b11111000 D
b0 B
1"
1!
#1027500
0"
0!
#1030000
0.
0A
b11110000 D
0*
1"
1!
#1032500
0"
0!
#1035000
1$
1*
b10010 ,
b10010 J
0H
b11100000 D
1"
1!
#1037500
0"
0!
#1040000
b1 B
b11000000 D
0*
b10010 2
b10010 =
b10 <
b10 L
1"
1!
#1042500
0"
0!
#1045000
1*
b10 P
b10000000 D
b11 B
1"
1!
#1047500
0"
0!
#1050000
b1011011 )
b1011011 N
b10 M
b111 B
b0 D
0*
1"
1!
#1052500
0"
0!
#1055000
b110 )
b110 N
b1 M
1*
0-
0C
b1111 B
1"
1!
#1057500
0"
0!
#1060000
1%
b1011011 )
b1011011 N
b10 M
b11111 B
0I
0*
1"
1!
#1062500
0"
0!
#1065000
b110 )
b110 N
b1 M
1*
b1 D
b111111 B
1"
1!
#1067500
0"
0!
#1070000
b1011011 )
b1011011 N
b10 M
b1111111 B
b11 D
0*
1"
1!
#1072500
0"
0!
#1075000
b110 )
b110 N
b1 M
1*
b111 D
b11111111 B
1"
1!
#1077500
0"
0!
#1080000
b1011011 )
b1011011 N
b10 M
1.
1A
b1111 D
0*
1"
1!
#1082500
0"
0!
#1085000
0$
b110 )
b110 N
b1 M
1*
b10011 ,
b10011 J
1H
b11111 D
1"
1!
#1087500
0"
0!
#1090000
b1011011 )
b1011011 N
b10 M
b11111110 B
b111111 D
0*
b10011 2
b10011 =
b11 <
b11 L
1"
1!
#1092500
0"
0!
#1095000
b110 )
b110 N
b1 M
1*
b11 P
b1111111 D
b11111100 B
1"
1!
#1097500
0"
0!
#1100000
b1001111 )
b1001111 N
b11 M
b11111000 B
b11111111 D
0*
1"
1!
#1102500
0"
0!
#1105000
b110 )
b110 N
b1 M
1*
1-
1C
b11110000 B
1"
1!
#1107500
0"
0!
#1110000
0%
b1001111 )
b1001111 N
b11 M
b11100000 B
1I
0*
1"
1!
#1112500
0"
0!
#1115000
b110 )
b110 N
b1 M
1*
b11111110 D
b11000000 B
1"
1!
#1117500
0"
0!
#1120000
b1001111 )
b1001111 N
b11 M
b10000000 B
b11111100 D
0*
1"
1!
#1122500
0"
0!
#1125000
b110 )
b110 N
b1 M
1*
b11111000 D
b0 B
1"
1!
#1127500
0"
0!
#1130000
b1001111 )
b1001111 N
b11 M
0.
0A
b11110000 D
0*
1"
1!
#1132500
0"
0!
#1135000
1$
b110 )
b110 N
b1 M
1*
b10100 ,
b10100 J
0H
b11100000 D
1"
1!
#1137500
0"
0!
#1140000
b1001111 )
b1001111 N
b11 M
b1 B
b11000000 D
0*
b10100 2
b10100 =
b100 <
b100 L
1"
1!
#1142500
0"
0!
#1145000
b110 )
b110 N
b1 M
1*
b100 P
b10000000 D
b11 B
1"
1!
#1147500
0"
0!
#1150000
b1100110 )
b1100110 N
b100 M
b111 B
b0 D
0*
1"
1!
#1152500
0"
0!
#1155000
b110 )
b110 N
b1 M
1*
0-
0C
b1111 B
1"
1!
#1157500
0"
0!
#1160000
1%
1'
b1100110 )
b1100110 N
b100 M
b11111 B
0I
0*
1"
1!
#1162500
0"
0!
#1165000
b110 )
b110 N
b1 M
1*
b1 G
b1 D
b111111 B
1"
1!
#1167500
0"
0!
#1170000
b1100110 )
b1100110 N
b100 M
b1111111 B
b11 D
b11 G
0*
1"
1!
#1172500
0"
0!
#1175000
b110 )
b110 N
b1 M
1*
b111 G
b111 D
b11111111 B
1"
1!
#1177500
0"
0!
#1180000
b1100110 )
b1100110 N
b100 M
1.
1A
b1111 D
b1111 G
0*
1"
1!
#1182500
0"
0!
#1185000
b110 )
b110 N
b1 M
1*
b10101 ,
b10101 J
1H
b11111 G
b11111 D
1"
1!
#1187500
0"
0!
#1190000
b1100110 )
b1100110 N
b100 M
b111111 D
b111111 G
0*
b10101 2
b10101 =
b101 <
b101 L
1"
1!
#1192500
0"
0!
#1195000
b110 )
b110 N
b1 M
1*
b101 P
b1111111 G
b1111111 D
1"
1!
#1197500
0"
0!
#1200000
b1101101 )
b1101101 N
b101 M
b11111111 D
b11111111 G
0*
1"
1!
#1202500
0"
0!
#1205000
b110 )
b110 N
b10 8
b1 M
1(
1*
1+
1-
1C
1"
1!
#1207500
0"
0!
#1210000
0'
b1101101 )
b1101101 N
0(
b101 M
b10 8
1I
0*
19
b10 6
1"
1!
#1212500
0"
0!
#1215000
b110 )
b110 N
b1 M
1*
b11111110 G
b10101 3
b10101 >
1"
1!
#1217500
0"
0!
#1220000
b1101101 )
b1101101 N
b101 M
b11111100 G
0*
1"
1!
#1222500
0"
0!
#1225000
b110 )
b110 N
b1 M
1*
b11111000 G
1"
1!
#1227500
0"
0!
#1230000
b1101101 )
b1101101 N
b101 M
b11110000 G
0*
1"
1!
#1232500
0"
0!
#1235000
b110 )
b110 N
b1 M
1*
b11100000 G
1"
1!
#1237500
0"
0!
#1240000
b1101101 )
b1101101 N
b101 M
b11000000 G
0*
1"
1!
#1242500
0"
0!
#1245000
b110 )
b110 N
b1 M
1*
b10000000 G
1"
1!
#1247500
0"
0!
#1250000
0%
b1101101 )
b1101101 N
b101 M
b0 G
0*
1"
1!
#1252500
0"
0!
#1255000
b110 )
b110 N
b1 M
1*
0+
b11111110 D
1"
1!
#1257500
0"
0!
